<?xml version="1.0" standalone="no"?>
<!DOCTYPE svg PUBLIC "-//W3C//DTD SVG 1.1//EN" "http://www.w3.org/Graphics/SVG/1.1/DTD/svg11.dtd" >
<svg xmlns="http://www.w3.org/2000/svg">
<metadata>Generated by IcoMoon</metadata>
<defs>
<font id="icomoon" horiz-adv-x="1024">
<font-face units-per-em="1024" ascent="960" descent="-64" />
<missing-glyph horiz-adv-x="1024" />
<glyph unicode="&#x20;" horiz-adv-x="512" d="" />
<glyph unicode="&#xe24d;" glyph-name="docks" d="M554 554.667h236l-236 234v-234zM256 852.667h342l256-256v-512c0-46-40-84-86-84h-512c-46 0-86 38-86 84l2 684c0 46 38 84 84 84z" />
<glyph unicode="&#xe7fb;" glyph-name="team" d="M682 384.667c100 0 300-50 300-150v-106h-256v106c0 64-34 112-84 148 14 2 28 2 40 2zM342 384.667c100 0 298-50 298-150v-106h-598v106c0 100 200 150 300 150zM342 468.667c-70 0-128 58-128 128s58 128 128 128 126-58 126-128-56-128-126-128zM682 468.667c-70 0-128 58-128 128s58 128 128 128 128-58 128-128-58-128-128-128z" />
<glyph unicode="&#xe859;" glyph-name="andro" d="M640 724.667v44h-42v-44h42zM426 724.667v44h-42v-44h42zM662 846.667c64-46 106-122 106-206h-512c0 84 40 160 104 206l-56 56c-8 8-8 22 0 30s22 8 30 0l64-64c34 18 74 28 114 28s78-10 112-28l64 64c8 8 22 8 30 0s8-22 0-30zM874 596.667c36 0 64-28 64-64v-298c0-36-28-64-64-64s-64 28-64 64v298c0 36 28 64 64 64zM150 596.667c36 0 64-28 64-64v-298c0-36-28-64-64-64s-64 28-64 64v298c0 36 28 64 64 64zM256 170.667v426h512v-426c0-24-18-42-42-42h-44v-150c0-36-28-64-64-64s-64 28-64 64v150h-84v-150c0-36-28-64-64-64s-64 28-64 64v150h-44c-24 0-42 18-42 42z" />
<glyph unicode="&#xe868;" glyph-name="bugs" d="M598 426.667v86h-172v-86h172zM598 256.667v84h-172v-84h172zM854 596.667v-84h-90c2-14 4-30 4-44v-42h86v-86h-86v-42c0-14-2-28-4-42h90v-86h-120c-44-76-128-128-222-128s-178 52-222 128h-120v86h90c-2 14-4 28-4 42v42h-86v86h86v42c0 14 2 30 4 44h-90v84h120c20 34 46 62 78 84l-70 70 60 60 94-92c20 4 40 6 60 6s40-2 60-6l94 92 60-60-70-70c32-22 58-50 78-84h120z" />
<glyph unicode="&#xe905;" glyph-name="gitlab" d="M1022.080 358.955l-57.259 176.427-113.664 349.397c-5.76 18.048-31.147 18.048-36.992 0l-113.664-349.312h-377.003l-113.621 349.312c-5.803 18.048-31.317 18.048-37.077 0.128l-113.664-349.397-57.259-176.555c-5.163-16 0.597-33.664 14.123-43.648l496-360.277 496 360.235c13.568 10.027 19.328 27.605 14.080 43.691z" />
<glyph unicode="&#xe906;" glyph-name="mastodon" d="M989.568 602.496c0 222.123-145.536 287.232-145.536 287.232-73.387 33.707-199.424 47.872-330.283 48.939h-3.243c-130.901-1.067-256.853-15.232-330.24-48.939 0 0-145.536-65.109-145.536-287.232 0-50.859-0.981-111.701 0.64-176.171 5.291-217.259 39.851-431.317 240.683-484.48 92.587-24.491 172.117-29.653 236.16-26.112 116.139 6.4 181.333 41.472 181.333 41.472l-3.84 84.267s-82.987-26.155-176.171-22.997c-92.373 3.157-189.824 9.941-204.757 123.349-1.305 9.295-2.050 20.032-2.050 30.944 0 0.296 0.001 0.592 0.002 0.889v-0.046s90.667-22.187 205.525-27.435c70.229-3.2 136.107 4.139 203.008 12.075 128.299 15.317 240 94.379 254.037 166.613 22.059 113.707 20.267 277.632 20.267 277.632zM817.877 316.246h-106.539v261.077c0 55.040-23.168 82.944-69.461 82.944-51.2 0-76.885-33.109-76.885-98.645v-142.891h-105.941v142.933c0 65.536-25.685 98.645-76.885 98.645-46.293 0-69.461-27.947-69.461-82.944v-261.077h-106.539v268.928c0 54.997 13.995 98.688 42.112 130.987 29.013 32.341 66.944 48.896 114.091 48.896 54.528 0 95.829-20.949 123.136-62.891l26.496-44.501 26.539 44.501c27.307 41.941 68.608 62.891 123.136 62.891 47.104 0 85.077-16.555 114.091-48.896 28.075-32.299 42.069-75.989 42.069-130.987v-268.971z" />
</font></defs></svg>